…
# The Nine Companions

Filter to show total words spoken by the Nine Companions


```r
fellowship <- c("Gandalf", "Aragorn", "Merry", "Pippin", "Frodo", "Sam", "Gimli", "Legolas", "Boromir")
(characterwords <- lotr_data %>% 
	filter(Character %in% fellowship) %>% 
	group_by(Character, Film) %>% 
	summarize(sum(Words)))
```

```
## # A tibble: 26 x 3
## # Groups:   Character [?]
##    Character                       Film `sum(Words)`
##       <fctr>                     <fctr>        <int>
##  1   Aragorn The Fellowship Of The Ring          920
##  2   Aragorn     The Return Of The King          580
##  3   Aragorn             The Two Towers          822
##  4   Boromir The Fellowship Of The Ring          943
##  5   Boromir             The Two Towers          134
##  6     Frodo The Fellowship Of The Ring          967
##  7     Frodo     The Return Of The King          650
##  8     Frodo             The Two Towers          664
##  9   Gandalf The Fellowship Of The Ring         2360
## 10   Gandalf     The Return Of The King         1504
## # ... with 16 more rows
```
…
