…
answer <-tibble(words = words, vowelcount = vowelcount, wordlengths = wordlength)

answer %>%
  arrange(desc(vowelcount))
```

```
## Warning in arrange_impl(.data, dots): '.Random.seed' is not an integer
## vector but of type 'NULL', so ignored
```

```
## # A tibble: 980 x 3
##          words vowelcount wordlengths
##          <chr>      <int>       <int>
##  1 appropriate          5          11
##  2   associate          5           9
##  3   authority          5           9
##  4   available          5           9
##  5   colleague          5           9
##  6   encourage          5           9
##  7  experience          5          10
##  8  individual          5          10
##  9 opportunity          5          11
## 10  television          5          10
## # ... with 970 more rows
```

```r
answer %>%
  mutate(proportion = vowelcount / wordlength) %>%
  arrange(desc(proportion))
```

```
## # A tibble: 980 x 4
##    words vowelcount wordlengths proportion
##    <chr>      <int>       <int>      <dbl>
##  1     a          1           1  1.0000000
##  2   eye          3           3  1.0000000
##  3   you          3           3  1.0000000
##  4  area          3           4  0.7500000
##  5  away          3           4  0.7500000
##  6  easy          3           4  0.7500000
##  7  idea          3           4  0.7500000
##  8  okay          3           4  0.7500000
##  9  year          3           4  0.7500000
## 10   age          2           3  0.6666667
## # ... with 970 more rows
```
…
